<svg xmlns="http://www.w3.org/2000/svg" width="16" height="22" viewBox="0 0 16 22">
    <path fill="none" stroke="#FFF" d="M13.835 4.425c-1.214-2.095-3.37-3.375-5.767-3.423-.102-.003-.205-.003-.308 0-2.397.048-4.553 1.328-5.767 3.423-1.24 2.141-1.275 4.713-.09 6.88l4.959 9.077.006.012c.219.38.61.606 1.046.606.437 0 .828-.226 1.046-.606l.007-.012 4.959-9.077c1.184-2.167 1.15-4.739-.09-6.88zm-5.92 5.638c-1.552 0-2.813-1.262-2.813-2.813 0-1.55 1.261-2.813 2.812-2.813 1.55 0 2.813 1.262 2.813 2.813 0 1.55-1.262 2.813-2.813 2.813z"/>
</svg>
