<svg xmlns="http://www.w3.org/2000/svg" width="26" height="26" viewBox="0 0 26 26">
    <g fill="none" fill-rule="evenodd" stroke="#000" transform="translate(1 1)">
        <circle cx="9" cy="9" r="9" stroke-width="1.5"/>
        <path stroke-linecap="round" stroke-width="2" d="M23.01 23.021L15.529 15.529"/>
    </g>
</svg>
