<svg xmlns="http://www.w3.org/2000/svg" width="22" height="22" viewBox="0 0 22 22">
    <path fill="none" fill-rule="evenodd" stroke="#FFF" d="M18.655 21C19.948 21 21 19.94 21 18.638v-3.15c0-.339-.216-.64-.536-.747l-4.701-1.574c-.23-.077-.483-.044-.685.091l-1.999 1.336c-2.145-1.02-4.681-3.54-5.69-5.653l1.333-2.004c.134-.202.168-.455.09-.686l-1.57-4.713C7.135 1.217 6.835 1 6.497 1H3.356C2.056 1 1 2.055 1 3.351c0 4.35 1.973 8.816 5.413 12.25C9.85 19.032 14.312 21 18.655 21z"/>
</svg>
